RML_project_US homocide
…
test_set$Crime_Solved<-as.factor(test_set$Crime_Solved)
test_set$Victim_Count<-as.numeric(test_set$Victim_Count)

explainer <- lime(train_set_balanced[,-2], model_rf, quantile_bins = FALSE)

set.seed(123)

d_test<-subset(test_set,test_set$Victim_Race=="Black"& test_set$Victim_Age=="75+"&test_set$Weapon=="Gun"& test_set$Agency_Type=="Sheriff"&test_set$Victim_Sex=="Male")

explanation <- lime::explain(d_test[c(3:4,(nrow(d_test)-1):nrow(d_test)),-2], explainer,n_labels=1, n_features = 6, n_permutations=100)

explanation

## # A tibble: 24 x 13
##    model_type case  label label_prob model_r2 model_intercept model_prediction
##    <chr>      <chr> <chr>      <dbl>    <dbl>           <dbl>            <dbl>
##  1 classific~ 1     1            0.7    0.583           0.560            0.788
##  2 classific~ 1     1            0.7    0.583           0.560            0.788
##  3 classific~ 1     1            0.7    0.583           0.560            0.788
##  4 classific~ 1     1            0.7    0.583           0.560            0.788
##  5 classific~ 1     1            0.7    0.583           0.560            0.788
##  6 classific~ 1     1            0.7    0.583           0.560            0.788
##  7 classific~ 2     1            0.7    0.472           0.962            0.768
##  8 classific~ 2     1            0.7    0.472           0.962            0.768
##  9 classific~ 2     1            0.7    0.472           0.962            0.768
## 10 classific~ 2     1            0.7    0.472           0.962            0.768
## # ... with 14 more rows, and 6 more variables: feature <chr>,
## #   feature_value <dbl>, feature_weight <dbl>, feature_desc <chr>, data <list>,
## #   prediction <list>
…
